{
	"meta": {
		"image": "assets/images/app.png",
		"title": "Gulp Boilerplate",
		"description": "Gulp boilerplate to start new projects with bootstrap and same usefull plugins.",
		"keywords": "gulp, boilerplate, front-end, tool, javascript, start, projects, usefull, plugins",
		"author": "Wallace Erick",
		"color": "#2196f3"
	},
	"bootstrap": [
		{
			"name": "Buttons",
			"url": "buttons.html"
		},
		{
			"name": "Grid System",
			"url": "grid.html"
		},
		{
			"name": "Popover",
			"url": "popover.html"
		},
		{
			"name": "Tooltips",
			"url": "tooltip.html"
		},
		{
			"name": "Toast",
			"url": "toast.html"
		}
	],
	"components": [
		{
			"name": "Accordion",
			"url": "accordion.html"
		},
		{
			"name": "Animate on Scroll",
			"url": "animate-on-scroll.html"
		},
		{
			"name": "Dropdown",
			"url": "dropdown.html"
		},
		{
			"name": "Full Page",
			"url": "fullpage.html"
		},
		{
			"name": "Material Inputs",
			"url": "material-inputs.html"
		},
		{
			"name": "Knob",
			"url": "knob.html"
		},
		{
			"name": "Lightbox",
			"url": "lightbox.html"
		},
		{
			"name": "Slider",
			"url": "slider.html"
		},
		{
			"name": "Sprites",
			"url": "sprites.html"
		},
		{
			"name": "Table Sorter",
			"url": "table-sorter.html"
		},
		{
			"name": "Video",
			"url": "video.html"
		},
		{
			"name": "Plyr",
			"url": "plyr.html"
		}
	],
	"audio": [
		{
			"title": "Chapter 1",
			"time": 0
		},
		{
			"title": "Chapter 2",
			"time": 45
		},
		{
			"title": "Chapter 3",
			"time": 75
		},
		{
			"title": "Chapter 4",
			"time": 100
		},
		{
			"title": "Chapter 5",
			"time": 160
		}
	]
}
